{
  "version": "14.0.0",
  "vulnerabilities": [
    {
      "id": "fa297f1e839b948dcca6e158f98d1a54c782060345cfa1bff1209f3f21779f64",
      "category": "sast",
      "name": "Weak random number generator.",
      "message": "Weak random number generator.",
      "cve": "ServiceB/Random.cs:15:SCS0005",
      "severity": "High",
      "scanner": {
        "id": "security_code_scan",
        "name": "Security Code Scan"
      },
      "location": {
        "file": "ServiceB/Random.cs",
        "start_line": 15
      },
      "identifiers": [
        {
          "type": "security_code_scan_rule_id",
          "name": "SCS0005",
          "value": "SCS0005",
          "url": "https://security-code-scan.github.io/#SCS0005"
        }
      ]
    }
  ],
  "scan": {
    "analyzer" : {
      "id" : "security_code_scan",
      "name" : "Security Code Scan",
      "url" : "https://gitlab.com/gitlab-org/security-products/analyzers/security-code-scan",
      "vendor" : {
        "name" : "GitLab"
      }
    },
    "scanner": {
      "id": "security_code_scan",
      "name": "Security Code Scan",
      "url": "https://security-code-scan.github.io",
      "vendor": {
        "name": "GitLab"
      },
      "version": "3.5.3"
    },
    "type": "sast",
    "start_time": "2021-01-20T19:26:47",
    "end_time": "2021-01-20T19:27:22",
    "status": "success"
  }
}
