{
  "version": "14.0.0",
  "vulnerabilities": [
    {
      "category": "sast",
      "name": "Weak random generator",
      "message": "Weak random generator",
      "cve": "app/WeakRandom.cs:7:SCS0005",
      "scanner": {
        "id": "security_code_scan",
        "name": "Security Code Scan"
      },
      "location": {
        "file": "app/WeakRandom.cs",
        "start_line": 7
      },
      "identifiers": [
        {
          "type": "security_code_scan_rule_id",
          "name": "SCS0005",
          "value": "SCS0005",
          "url": "https://security-code-scan.github.io/#SCS0005"
        }
      ]
    }
  ],
  "scan": {
    "scanner": {
      "id": "security_code_scan",
      "name": "Security Code Scan",
      "url": "https://security-code-scan.github.io",
      "vendor": {
        "name": "GitLab"
      },
      "version": "3.5.3"
    },
    "type": "sast",
    "status": "success",
    "start_time": "placeholder-value",
    "end_time": "placeholder-value"
  }
}
